[
  {
    "name": "CPM1 High Humidity",
    "asset_erddap_id": "CE09OSSM-BUOY-001-SUPERV",
    "variable_erddap_id": "humidity",
    "expression": "humidity > 25",
    "severity": 1,
    "duration": 30,
    "duration_code": 1
  },
  {
    "name": "CPM1 Critical Humidity",
    "asset_erddap_id": "CE09OSSM-BUOY-001-SUPERV",
    "variable_erddap_id": "humidity",
    "expression": "humidity > 40",
    "severity": 2,
    "duration": 30,
    "duration_code": 1
  },
  {
    "name": "CPM1 Voltage",
    "asset_erddap_id": "CE09OSSM-BUOY-001-SUPERV",
    "variable_erddap_id": "main_voltage",
    "expression": "main_voltage < 25",
    "severity": 1,
    "duration": 30,
    "duration_code": 1
  },
  {
    "name": "CPM1 Low voltage",
    "asset_erddap_id": "CE09OSSM-BUOY-001-SUPERV",
    "variable_erddap_id": "main_voltage",
    "expression": "main_voltage < 24",
    "severity": 2,
    "duration": 30,
    "duration_code": 1
  },
  {
    "name": "CPM1 Leak detect 1",
    "asset_erddap_id": "CE09OSSM-BUOY-001-SUPERV",
    "variable_erddap_id": "leak_detect_voltage1",
    "expression": "leak_detect_voltage1 > 500",
    "severity": 2,
    "duration": 30,
    "duration_code": 1
  },
  {
    "name": "CPM1 Leak detect 2",
    "asset_erddap_id": "CE09OSSM-BUOY-001-SUPERV",
    "variable_erddap_id": "leak_detect_voltage2",
    "expression": "leak_detect_voltage2 > 500",
    "severity": 2,
    "duration": 30,
    "duration_code": 1
  },
  {
    "name": "CPM1 Critical Voltage",
    "asset_erddap_id": "CE09OSSM-BUOY-001-SUPERV",
    "variable_erddap_id": "main_voltage",
    "expression": "main_voltage < 23.5",
    "severity": 2,
    "duration": 30,
    "duration_code": 1
  },
  {
    "name": "Hydrogen elevated DCL12",
    "asset_erddap_id": "CE09OSSM-BUOY-001-HYDGN",
    "variable_erddap_id": "hydrogen_concentration",
    "expression": "hydrogen_concentration > -100",
    "severity": 1,
    "duration": 30,
    "duration_code": 1
  },
  {
    "name": "Hydrogen elevated DCL12",
    "asset_erddap_id": "CE09OSSM-BUOY-001-HYDGN",
    "variable_erddap_id": "hydrogen_concentration",
    "expression": "hydrogen_concentration > 10",
    "severity": 2,
    "duration": 30,
    "duration_code": 1
  },
  {
    "name": "Hydrogen critical DCL12",
    "asset_erddap_id": "CE09OSSM-BUOY-001-HYDGN",
    "variable_erddap_id": "hydrogen_concentration",
    "expression": "hydrogen_concentration > 25",
    "severity": 3,
    "duration": 30,
    "duration_code": 1
  },
  {
    "name": "DCL12 High Humidity",
    "asset_erddap_id": "CE09OSSM-BUOY-002-SUPERV",
    "variable_erddap_id": "humidity",
    "expression": "humidity > 25",
    "severity": 2,
    "duration": 30,
    "duration_code": 1
  },
  {
    "name": "CPM2 High Humidity",
    "asset_erddap_id": "CE09OSSM-NSIF-001-SUPERV",
    "variable_erddap_id": "humidity",
    "expression": "humidity > 25",
    "severity": 1,
    "duration": 30,
    "duration_code": 1
  },
  {
    "name": "CPM2 Critical Humidity",
    "asset_erddap_id": "CE09OSSM-NSIF-001-SUPERV",
    "variable_erddap_id": "humidity",
    "expression": "humidity > 40",
    "severity": 2,
    "duration": 30,
    "duration_code": 1
  },
  {
    "name": "CPM2 Voltage",
    "asset_erddap_id": "CE09OSSM-NSIF-001-SUPERV",
    "variable_erddap_id": "main_voltage",
    "expression": "main_voltage < 25",
    "severity": 1,
    "duration": 30,
    "duration_code": 1
  },
  {
    "name": "CPM2 Low voltage",
    "asset_erddap_id": "CE09OSSM-NSIF-001-SUPERV",
    "variable_erddap_id": "main_voltage",
    "expression": "main_voltage < 24",
    "severity": 2,
    "duration": 30,
    "duration_code": 1
  },
  {
    "name": "CPM2 Leak detect 1",
    "asset_erddap_id": "CE09OSSM-NSIF-001-SUPERV",
    "variable_erddap_id": "leak_detect_voltage1",
    "expression": "leak_detect_voltage1 > 300",
    "severity": 2,
    "duration": 30,
    "duration_code": 1
  },
  {
    "name": "CPM2 Leak detect 2",
    "asset_erddap_id": "CE09OSSM-NSIF-001-SUPERV",
    "variable_erddap_id": "leak_detect_voltage2",
    "expression": "leak_detect_voltage2 > 300",
    "severity": 2,
    "duration": 30,
    "duration_code": 1
  },
  {
    "name": "DCL26 High Humidity",
    "asset_erddap_id": "CE09OSSM-NSIF-002-SUPERV",
    "variable_erddap_id": "humidity",
    "expression": "humidity > 25",
    "severity": 2,
    "duration": 30,
    "duration_code": 1
  },
  {
    "name": "DCL27 High Humidity",
    "asset_erddap_id": "CE09OSSM-NSIF-003-SUPERV",
    "variable_erddap_id": "humidity",
    "expression": "humidity > 25",
    "severity": 2,
    "duration": 30,
    "duration_code": 1
  },
  {
    "name": "CPM3 High Humidity",
    "asset_erddap_id": "CE09OSSM-MFN-001-SUPERV",
    "variable_erddap_id": "humidity",
    "expression": "humidity > 25",
    "severity": 1,
    "duration": 30,
    "duration_code": 1
  },
  {
    "name": "CPM3 Critical Humidity",
    "asset_erddap_id": "CE09OSSM-MFN-001-SUPERV",
    "variable_erddap_id": "humidity",
    "expression": "humidity > 40",
    "severity": 2,
    "duration": 30,
    "duration_code": 1
  },
  {
    "name": "CPM3 Voltage",
    "asset_erddap_id": "CE09OSSM-MFN-001-SUPERV",
    "variable_erddap_id": "main_voltage",
    "expression": "main_voltage < 25",
    "severity": 1,
    "duration": 30,
    "duration_code": 1
  },
  {
    "name": "CPM3 Low voltage",
    "asset_erddap_id": "CE09OSSM-MFN-001-SUPERV",
    "variable_erddap_id": "main_voltage",
    "expression": "main_voltage < 24",
    "severity": 2,
    "duration": 30,
    "duration_code": 1
  },
  {
    "name": "CPM3 Leak detect 1",
    "asset_erddap_id": "CE09OSSM-MFN-001-SUPERV",
    "variable_erddap_id": "leak_detect_voltage1",
    "expression": "leak_detect_voltage1 > 300",
    "severity": 2,
    "duration": 30,
    "duration_code": 1
  },
  {
    "name": "CPM3 Leak detect 2",
    "asset_erddap_id": "CE09OSSM-MFN-001-SUPERV",
    "variable_erddap_id": "leak_detect_voltage2",
    "expression": "leak_detect_voltage2 > 300",
    "severity": 2,
    "duration": 30,
    "duration_code": 1
  },
  {
    "name": "DCL35 High Humidity",
    "asset_erddap_id": "CE09OSSM-MFN-002-SUPERV",
    "variable_erddap_id": "humidity",
    "expression": "humidity > 25",
    "severity": 2,
    "duration": 30,
    "duration_code": 1
  },
  {
    "name": "DCL37 High Humidity",
    "asset_erddap_id": "CE09OSSM-MFN-003-SUPERV",
    "variable_erddap_id": "humidity",
    "expression": "humidity > 25",
    "severity": 1,
    "duration": 30,
    "duration_code": 1
  }
]