[
  {
    "quality_flag": "ok",
    "vmain_voltage": 24.98,
    "stream_name": "cg_eng_c_power_sys",
    "bt2_current": 880.0,
    "pkt_version": 1,
    "bt1_current": 875.0,
    "driver_timestamp": 3687785366.762117,
    "preferred_timestamp": "internal_timestamp",
    "bt4_current": 991.0,
    "bt3_current": 878.0,
    "pkt_format_id": "JSON_Data",
    "header_timestamp": "2016/06/21 00:00:45.970",
    "internal_timestamp": 3675456045.9700003
  },
  {
    "quality_flag": "ok",
    "vmain_voltage": 24.98,
    "stream_name": "cg_eng_c_power_sys",
    "bt2_current": 642.0,
    "pkt_version": 1,
    "bt1_current": 644.0,
    "driver_timestamp": 3687785366.832871,
    "preferred_timestamp": "internal_timestamp",
    "bt4_current": 765.0,
    "bt3_current": 688.0,
    "pkt_format_id": "JSON_Data",
    "header_timestamp": "2016/06/21 00:05:46.921",
    "internal_timestamp": 3675456346.921
  },
  {
    "quality_flag": "ok",
    "vmain_voltage": 24.93,
    "stream_name": "cg_eng_c_power_sys",
    "bt2_current": 922.0,
    "pkt_version": 1,
    "bt1_current": 893.0,
    "driver_timestamp": 3687785366.960832,
    "preferred_timestamp": "internal_timestamp",
    "bt4_current": 1050.0,
    "bt3_current": 952.0,
    "pkt_format_id": "JSON_Data",
    "header_timestamp": "2016/06/21 00:10:47.983",
    "internal_timestamp": 3675456647.983
  },
  {
    "quality_flag": "ok",
    "vmain_voltage": 24.93,
    "stream_name": "cg_eng_c_power_sys",
    "bt2_current": 751.0,
    "pkt_version": 1,
    "bt1_current": 722.0,
    "driver_timestamp": 3687785367.053851,
    "preferred_timestamp": "internal_timestamp",
    "bt4_current": 880.0,
    "bt3_current": 760.0,
    "pkt_format_id": "JSON_Data",
    "header_timestamp": "2016/06/21 00:15:48.627",
    "internal_timestamp": 3675456948.627
  },
  {
    "quality_flag": "ok",
    "vmain_voltage": 24.98,
    "stream_name": "cg_eng_c_power_sys",
    "bt2_current": 500.0,
    "pkt_version": 1,
    "bt1_current": 496.0,
    "driver_timestamp": 3687785367.1383343,
    "preferred_timestamp": "internal_timestamp",
    "bt4_current": 587.0,
    "bt3_current": 537.0,
    "pkt_format_id": "JSON_Data",
    "header_timestamp": "2016/06/21 00:20:49.245",
    "internal_timestamp": 3675457249.245
  },
  {
    "quality_flag": "ok",
    "vmain_voltage": 25.02,
    "stream_name": "cg_eng_c_power_sys",
    "bt2_current": 431.0,
    "pkt_version": 1,
    "bt1_current": 419.0,
    "driver_timestamp": 3687785367.204337,
    "preferred_timestamp": "internal_timestamp",
    "bt4_current": 511.0,
    "bt3_current": 477.0,
    "pkt_format_id": "JSON_Data",
    "header_timestamp": "2016/06/21 00:25:49.934",
    "internal_timestamp": 3675457549.934
  },
  {
    "quality_flag": "ok",
    "vmain_voltage": 24.98,
    "stream_name": "cg_eng_c_power_sys",
    "bt2_current": 538.0,
    "pkt_version": 1,
    "bt1_current": 544.0,
    "driver_timestamp": 3687785367.2594633,
    "preferred_timestamp": "internal_timestamp",
    "bt4_current": 560.0,
    "bt3_current": 527.0,
    "pkt_format_id": "JSON_Data",
    "header_timestamp": "2016/06/21 00:30:50.569",
    "internal_timestamp": 3675457850.5690002
  },
  {
    "quality_flag": "ok",
    "vmain_voltage": 24.98,
    "stream_name": "cg_eng_c_power_sys",
    "bt2_current": 502.0,
    "pkt_version": 1,
    "bt1_current": 499.0,
    "driver_timestamp": 3687785367.3131533,
    "preferred_timestamp": "internal_timestamp",
    "bt4_current": 606.0,
    "bt3_current": 550.0,
    "pkt_format_id": "JSON_Data",
    "header_timestamp": "2016/06/21 00:35:51.083",
    "internal_timestamp": 3675458151.083
  },
  {
    "quality_flag": "ok",
    "vmain_voltage": 24.98,
    "stream_name": "cg_eng_c_power_sys",
    "bt2_current": 618.0,
    "pkt_version": 1,
    "bt1_current": 622.0,
    "driver_timestamp": 3687785367.346026,
    "preferred_timestamp": "internal_timestamp",
    "bt4_current": 700.0,
    "bt3_current": 645.0,
    "pkt_format_id": "JSON_Data",
    "header_timestamp": "2016/06/21 00:40:51.842",
    "internal_timestamp": 3675458451.842
  },
  {
    "quality_flag": "ok",
    "vmain_voltage": 24.98,
    "stream_name": "cg_eng_c_power_sys",
    "bt2_current": 539.0,
    "pkt_version": 1,
    "bt1_current": 514.0,
    "driver_timestamp": 3687785367.383659,
    "preferred_timestamp": "internal_timestamp",
    "bt4_current": 626.0,
    "bt3_current": 565.0,
    "pkt_format_id": "JSON_Data",
    "header_timestamp": "2016/06/21 00:45:52.675",
    "internal_timestamp": 3675458752.675
  },
  {
    "quality_flag": "ok",
    "vmain_voltage": 25.0,
    "stream_name": "cg_eng_c_power_sys",
    "bt2_current": 392.0,
    "pkt_version": 1,
    "bt1_current": 402.0,
    "driver_timestamp": 3687785367.431274,
    "preferred_timestamp": "internal_timestamp",
    "bt4_current": 448.0,
    "bt3_current": 405.0,
    "pkt_format_id": "JSON_Data",
    "header_timestamp": "2016/06/21 00:50:53.337",
    "internal_timestamp": 3675459053.337
  },
  {
    "quality_flag": "ok",
    "vmain_voltage": 24.98,
    "stream_name": "cg_eng_c_power_sys",
    "bt2_current": 421.0,
    "pkt_version": 1,
    "bt1_current": 415.0,
    "driver_timestamp": 3687785367.463496,
    "preferred_timestamp": "internal_timestamp",
    "bt4_current": 455.0,
    "bt3_current": 440.0,
    "pkt_format_id": "JSON_Data",
    "header_timestamp": "2016/06/21 00:55:53.999",
    "internal_timestamp": 3675459353.999
  },
  {
    "quality_flag": "ok",
    "vmain_voltage": 24.87,
    "stream_name": "cg_eng_c_power_sys",
    "bt2_current": 929.0,
    "pkt_version": 1,
    "bt1_current": 922.0,
    "driver_timestamp": 3687785367.502721,
    "preferred_timestamp": "internal_timestamp",
    "bt4_current": 1056.0,
    "bt3_current": 950.0,
    "pkt_format_id": "JSON_Data",
    "header_timestamp": "2016/06/21 01:00:54.766",
    "internal_timestamp": 3675459654.766
  },
  {
    "quality_flag": "ok",
    "vmain_voltage": 24.93,
    "stream_name": "cg_eng_c_power_sys",
    "bt2_current": 585.0,
    "pkt_version": 1,
    "bt1_current": 559.0,
    "driver_timestamp": 3687785367.549835,
    "preferred_timestamp": "internal_timestamp",
    "bt4_current": 651.0,
    "bt3_current": 593.0,
    "pkt_format_id": "JSON_Data",
    "header_timestamp": "2016/06/21 01:05:55.728",
    "internal_timestamp": 3675459955.7279997
  },
  {
    "quality_flag": "ok",
    "vmain_voltage": 24.95,
    "stream_name": "cg_eng_c_power_sys",
    "bt2_current": 482.0,
    "pkt_version": 1,
    "bt1_current": 486.0,
    "driver_timestamp": 3687785367.589479,
    "preferred_timestamp": "internal_timestamp",
    "bt4_current": 580.0,
    "bt3_current": 506.0,
    "pkt_format_id": "JSON_Data",
    "header_timestamp": "2016/06/21 01:10:56.945",
    "internal_timestamp": 3675460256.9449997
  },
  {
    "quality_flag": "ok",
    "vmain_voltage": 24.93,
    "stream_name": "cg_eng_c_power_sys",
    "bt2_current": 604.0,
    "pkt_version": 1,
    "bt1_current": 599.0,
    "driver_timestamp": 3687785367.637084,
    "preferred_timestamp": "internal_timestamp",
    "bt4_current": 722.0,
    "bt3_current": 629.0,
    "pkt_format_id": "JSON_Data",
    "header_timestamp": "2016/06/21 01:15:57.921",
    "internal_timestamp": 3675460557.921
  },
  {
    "quality_flag": "ok",
    "vmain_voltage": 24.95,
    "stream_name": "cg_eng_c_power_sys",
    "bt2_current": 287.0,
    "pkt_version": 1,
    "bt1_current": 293.0,
    "driver_timestamp": 3687785367.672058,
    "preferred_timestamp": "internal_timestamp",
    "bt4_current": 320.0,
    "bt3_current": 314.0,
    "pkt_format_id": "JSON_Data",
    "header_timestamp": "2016/06/21 01:20:58.916",
    "internal_timestamp": 3675460858.916
  },
  {
    "quality_flag": "ok",
    "vmain_voltage": 24.95,
    "stream_name": "cg_eng_c_power_sys",
    "bt2_current": 379.0,
    "pkt_version": 1,
    "bt1_current": 411.0,
    "driver_timestamp": 3687785367.716543,
    "preferred_timestamp": "internal_timestamp",
    "bt4_current": 436.0,
    "bt3_current": 406.0,
    "pkt_format_id": "JSON_Data",
    "header_timestamp": "2016/06/21 01:25:59.910",
    "internal_timestamp": 3675461159.91
  },
  {
    "quality_flag": "ok",
    "vmain_voltage": 24.95,
    "stream_name": "cg_eng_c_power_sys",
    "bt2_current": 441.0,
    "pkt_version": 1,
    "bt1_current": 444.0,
    "driver_timestamp": 3687785368.120084,
    "preferred_timestamp": "internal_timestamp",
    "bt4_current": 529.0,
    "bt3_current": 470.0,
    "pkt_format_id": "JSON_Data",
    "header_timestamp": "2016/06/21 01:55:45.030",
    "internal_timestamp": 3675462945.0299997
  },
  {
    "quality_flag": "ok",
    "vmain_voltage": 24.87,
    "stream_name": "cg_eng_c_power_sys",
    "bt2_current": 799.0,
    "pkt_version": 1,
    "bt1_current": 826.0,
    "driver_timestamp": 3687785368.162471,
    "preferred_timestamp": "internal_timestamp",
    "bt4_current": 898.0,
    "bt3_current": 830.0,
    "pkt_format_id": "JSON_Data",
    "header_timestamp": "2016/06/21 02:00:45.881",
    "internal_timestamp": 3675463245.881
  },
  {
    "quality_flag": "ok",
    "vmain_voltage": 24.95,
    "stream_name": "cg_eng_c_power_sys",
    "bt2_current": 217.0,
    "pkt_version": 1,
    "bt1_current": 218.0,
    "driver_timestamp": 3687785368.206193,
    "preferred_timestamp": "internal_timestamp",
    "bt4_current": 287.0,
    "bt3_current": 239.0,
    "pkt_format_id": "JSON_Data",
    "header_timestamp": "2016/06/21 02:05:46.989",
    "internal_timestamp": 3675463546.9890003
  },
  {
    "quality_flag": "ok",
    "vmain_voltage": 24.98,
    "stream_name": "cg_eng_c_power_sys",
    "bt2_current": 384.0,
    "pkt_version": 1,
    "bt1_current": 339.0,
    "driver_timestamp": 3687785368.2554607,
    "preferred_timestamp": "internal_timestamp",
    "bt4_current": 459.0,
    "bt3_current": 405.0,
    "pkt_format_id": "JSON_Data",
    "header_timestamp": "2016/06/21 02:10:48.070",
    "internal_timestamp": 3675463848.0699997
  },
  {
    "quality_flag": "ok",
    "vmain_voltage": 24.95,
    "stream_name": "cg_eng_c_power_sys",
    "bt2_current": 208.0,
    "pkt_version": 1,
    "bt1_current": 190.0,
    "driver_timestamp": 3687785368.296033,
    "preferred_timestamp": "internal_timestamp",
    "bt4_current": 182.0,
    "bt3_current": 193.0,
    "pkt_format_id": "JSON_Data",
    "header_timestamp": "2016/06/21 02:15:48.446",
    "internal_timestamp": 3675464148.446
  },
  {
    "quality_flag": "ok",
    "vmain_voltage": 24.95,
    "stream_name": "cg_eng_c_power_sys",
    "bt2_current": 219.0,
    "pkt_version": 1,
    "bt1_current": 225.0,
    "driver_timestamp": 3687785368.341855,
    "preferred_timestamp": "internal_timestamp",
    "bt4_current": 255.0,
    "bt3_current": 217.0,
    "pkt_format_id": "JSON_Data",
    "header_timestamp": "2016/06/21 02:20:48.950",
    "internal_timestamp": 3675464448.95
  },
  {
    "quality_flag": "ok",
    "vmain_voltage": 24.95,
    "stream_name": "cg_eng_c_power_sys",
    "bt2_current": 494.0,
    "pkt_version": 1,
    "bt1_current": 499.0,
    "driver_timestamp": 3687785368.416205,
    "preferred_timestamp": "internal_timestamp",
    "bt4_current": 580.0,
    "bt3_current": 532.0,
    "pkt_format_id": "JSON_Data",
    "header_timestamp": "2016/06/21 02:25:49.816",
    "internal_timestamp": 3675464749.816
  },
  {
    "quality_flag": "ok",
    "vmain_voltage": 24.95,
    "stream_name": "cg_eng_c_power_sys",
    "bt2_current": 304.0,
    "pkt_version": 1,
    "bt1_current": 309.0,
    "driver_timestamp": 3687785368.790298,
    "preferred_timestamp": "internal_timestamp",
    "bt4_current": 381.0,
    "bt3_current": 320.0,
    "pkt_format_id": "JSON_Data",
    "header_timestamp": "2016/06/21 02:55:45.038",
    "internal_timestamp": 3675466545.038
  },
  {
    "quality_flag": "ok",
    "vmain_voltage": 24.83,
    "stream_name": "cg_eng_c_power_sys",
    "bt2_current": 826.0,
    "pkt_version": 1,
    "bt1_current": 829.0,
    "driver_timestamp": 3687785368.834931,
    "preferred_timestamp": "internal_timestamp",
    "bt4_current": 887.0,
    "bt3_current": 805.0,
    "pkt_format_id": "JSON_Data",
    "header_timestamp": "2016/06/21 03:00:45.918",
    "internal_timestamp": 3675466845.918
  },
  {
    "quality_flag": "ok",
    "vmain_voltage": 24.85,
    "stream_name": "cg_eng_c_power_sys",
    "bt2_current": 583.0,
    "pkt_version": 1,
    "bt1_current": 594.0,
    "driver_timestamp": 3687785368.878771,
    "preferred_timestamp": "internal_timestamp",
    "bt4_current": 654.0,
    "bt3_current": 604.0,
    "pkt_format_id": "JSON_Data",
    "header_timestamp": "2016/06/21 03:05:46.854",
    "internal_timestamp": 3675467146.854
  },
  {
    "quality_flag": "ok",
    "vmain_voltage": 24.85,
    "stream_name": "cg_eng_c_power_sys",
    "bt2_current": 537.0,
    "pkt_version": 1,
    "bt1_current": 567.0,
    "driver_timestamp": 3687785369.016348,
    "preferred_timestamp": "internal_timestamp",
    "bt4_current": 591.0,
    "bt3_current": 552.0,
    "pkt_format_id": "JSON_Data",
    "header_timestamp": "2016/06/21 03:10:47.355",
    "internal_timestamp": 3675467447.355
  },
  {
    "quality_flag": "ok",
    "vmain_voltage": 24.87,
    "stream_name": "cg_eng_c_power_sys",
    "bt2_current": 314.0,
    "pkt_version": 1,
    "bt1_current": 328.0,
    "driver_timestamp": 3687785369.16707,
    "preferred_timestamp": "internal_timestamp",
    "bt4_current": 328.0,
    "bt3_current": 302.0,
    "pkt_format_id": "JSON_Data",
    "header_timestamp": "2016/06/21 03:15:48.236",
    "internal_timestamp": 3675467748.236
  },
  {
    "quality_flag": "ok",
    "vmain_voltage": 24.9,
    "stream_name": "cg_eng_c_power_sys",
    "bt2_current": 277.0,
    "pkt_version": 1,
    "bt1_current": 279.0,
    "driver_timestamp": 3687785369.304208,
    "preferred_timestamp": "internal_timestamp",
    "bt4_current": 317.0,
    "bt3_current": 276.0,
    "pkt_format_id": "JSON_Data",
    "header_timestamp": "2016/06/21 03:20:49.014",
    "internal_timestamp": 3675468049.014
  },
  {
    "quality_flag": "ok",
    "vmain_voltage": 24.93,
    "stream_name": "cg_eng_c_power_sys",
    "bt2_current": 395.0,
    "pkt_version": 1,
    "bt1_current": 393.0,
    "driver_timestamp": 3687785369.3677673,
    "preferred_timestamp": "internal_timestamp",
    "bt4_current": 456.0,
    "bt3_current": 396.0,
    "pkt_format_id": "JSON_Data",
    "header_timestamp": "2016/06/21 03:25:49.455",
    "internal_timestamp": 3675468349.455
  },
  {
    "quality_flag": "ok",
    "vmain_voltage": 24.87,
    "stream_name": "cg_eng_c_power_sys",
    "bt2_current": 648.0,
    "pkt_version": 1,
    "bt1_current": 654.0,
    "driver_timestamp": 3687785369.724313,
    "preferred_timestamp": "internal_timestamp",
    "bt4_current": 717.0,
    "bt3_current": 678.0,
    "pkt_format_id": "JSON_Data",
    "header_timestamp": "2016/06/21 03:55:44.672",
    "internal_timestamp": 3675470144.672
  },
  {
    "quality_flag": "ok",
    "vmain_voltage": 24.65,
    "stream_name": "cg_eng_c_power_sys",
    "bt2_current": 1415.0,
    "pkt_version": 1,
    "bt1_current": 1412.0,
    "driver_timestamp": 3687785369.765654,
    "preferred_timestamp": "internal_timestamp",
    "bt4_current": 1718.0,
    "bt3_current": 1464.0,
    "pkt_format_id": "JSON_Data",
    "header_timestamp": "2016/06/21 04:00:46.037",
    "internal_timestamp": 3675470446.0369997
  },
  {
    "quality_flag": "ok",
    "vmain_voltage": 24.65,
    "stream_name": "cg_eng_c_power_sys",
    "bt2_current": 1408.0,
    "pkt_version": 1,
    "bt1_current": 1388.0,
    "driver_timestamp": 3687785369.819788,
    "preferred_timestamp": "internal_timestamp",
    "bt4_current": 1649.0,
    "bt3_current": 1468.0,
    "pkt_format_id": "JSON_Data",
    "header_timestamp": "2016/06/21 04:05:46.792",
    "internal_timestamp": 3675470746.792
  },
  {
    "quality_flag": "ok",
    "vmain_voltage": 24.7,
    "stream_name": "cg_eng_c_power_sys",
    "bt2_current": 1187.0,
    "pkt_version": 1,
    "bt1_current": 1190.0,
    "driver_timestamp": 3687785369.9148293,
    "preferred_timestamp": "internal_timestamp",
    "bt4_current": 1377.0,
    "bt3_current": 1213.0,
    "pkt_format_id": "JSON_Data",
    "header_timestamp": "2016/06/21 04:10:47.400",
    "internal_timestamp": 3675471047.4
  },
  {
    "quality_flag": "ok",
    "vmain_voltage": 24.65,
    "stream_name": "cg_eng_c_power_sys",
    "bt2_current": 1306.0,
    "pkt_version": 1,
    "bt1_current": 1308.0,
    "driver_timestamp": 3687785370.069394,
    "preferred_timestamp": "internal_timestamp",
    "bt4_current": 1548.0,
    "bt3_current": 1348.0,
    "pkt_format_id": "JSON_Data",
    "header_timestamp": "2016/06/21 04:15:48.095",
    "internal_timestamp": 3675471348.0950003
  },
  {
    "quality_flag": "ok",
    "vmain_voltage": 24.85,
    "stream_name": "cg_eng_c_power_sys",
    "bt2_current": 634.0,
    "pkt_version": 1,
    "bt1_current": 612.0,
    "driver_timestamp": 3687785370.10879,
    "preferred_timestamp": "internal_timestamp",
    "bt4_current": 733.0,
    "bt3_current": 652.0,
    "pkt_format_id": "JSON_Data",
    "header_timestamp": "2016/06/21 04:20:48.863",
    "internal_timestamp": 3675471648.863
  },
  {
    "quality_flag": "ok",
    "vmain_voltage": 24.93,
    "stream_name": "cg_eng_c_power_sys",
    "bt2_current": 182.0,
    "pkt_version": 1,
    "bt1_current": 194.0,
    "driver_timestamp": 3687785370.1416492,
    "preferred_timestamp": "internal_timestamp",
    "bt4_current": 218.0,
    "bt3_current": 196.0,
    "pkt_format_id": "JSON_Data",
    "header_timestamp": "2016/06/21 04:25:49.460",
    "internal_timestamp": 3675471949.46
  },
  {
    "quality_flag": "ok",
    "vmain_voltage": 24.93,
    "stream_name": "cg_eng_c_power_sys",
    "bt2_current": 394.0,
    "pkt_version": 1,
    "bt1_current": 395.0,
    "driver_timestamp": 3687785370.560842,
    "preferred_timestamp": "internal_timestamp",
    "bt4_current": 440.0,
    "bt3_current": 404.0,
    "pkt_format_id": "JSON_Data",
    "header_timestamp": "2016/06/21 04:55:44.859",
    "internal_timestamp": 3675473744.859
  },
  {
    "quality_flag": "ok",
    "vmain_voltage": 24.77,
    "stream_name": "cg_eng_c_power_sys",
    "bt2_current": 1062.0,
    "pkt_version": 1,
    "bt1_current": 1047.0,
    "driver_timestamp": 3687785370.6427298,
    "preferred_timestamp": "internal_timestamp",
    "bt4_current": 1190.0,
    "bt3_current": 1072.0,
    "pkt_format_id": "JSON_Data",
    "header_timestamp": "2016/06/21 05:00:45.649",
    "internal_timestamp": 3675474045.649
  },
  {
    "quality_flag": "ok",
    "vmain_voltage": 24.95,
    "stream_name": "cg_eng_c_power_sys",
    "bt2_current": -287.0,
    "pkt_version": 1,
    "bt1_current": -249.0,
    "driver_timestamp": 3687785370.700315,
    "preferred_timestamp": "internal_timestamp",
    "bt4_current": -292.0,
    "bt3_current": -289.0,
    "pkt_format_id": "JSON_Data",
    "header_timestamp": "2016/06/21 05:05:47.030",
    "internal_timestamp": 3675474347.0299997
  },
  {
    "quality_flag": "ok",
    "vmain_voltage": 24.87,
    "stream_name": "cg_eng_c_power_sys",
    "bt2_current": 726.0,
    "pkt_version": 1,
    "bt1_current": 704.0,
    "driver_timestamp": 3687785370.744927,
    "preferred_timestamp": "internal_timestamp",
    "bt4_current": 786.0,
    "bt3_current": 733.0,
    "pkt_format_id": "JSON_Data",
    "header_timestamp": "2016/06/21 05:10:47.894",
    "internal_timestamp": 3675474647.894
  },
  {
    "quality_flag": "ok",
    "vmain_voltage": 24.87,
    "stream_name": "cg_eng_c_power_sys",
    "bt2_current": 279.0,
    "pkt_version": 1,
    "bt1_current": 285.0,
    "driver_timestamp": 3687785370.784794,
    "preferred_timestamp": "internal_timestamp",
    "bt4_current": 313.0,
    "bt3_current": 283.0,
    "pkt_format_id": "JSON_Data",
    "header_timestamp": "2016/06/21 05:15:48.389",
    "internal_timestamp": 3675474948.389
  },
  {
    "quality_flag": "ok",
    "vmain_voltage": 24.9,
    "stream_name": "cg_eng_c_power_sys",
    "bt2_current": 258.0,
    "pkt_version": 1,
    "bt1_current": 242.0,
    "driver_timestamp": 3687785370.816866,
    "preferred_timestamp": "internal_timestamp",
    "bt4_current": 317.0,
    "bt3_current": 268.0,
    "pkt_format_id": "JSON_Data",
    "header_timestamp": "2016/06/21 05:20:48.855",
    "internal_timestamp": 3675475248.855
  },
  {
    "quality_flag": "ok",
    "vmain_voltage": 24.95,
    "stream_name": "cg_eng_c_power_sys",
    "bt2_current": 320.0,
    "pkt_version": 1,
    "bt1_current": 284.0,
    "driver_timestamp": 3687785370.85961,
    "preferred_timestamp": "internal_timestamp",
    "bt4_current": 294.0,
    "bt3_current": 305.0,
    "pkt_format_id": "JSON_Data",
    "header_timestamp": "2016/06/21 05:25:49.400",
    "internal_timestamp": 3675475549.4
  },
  {
    "quality_flag": "ok",
    "vmain_voltage": 25.0,
    "stream_name": "cg_eng_c_power_sys",
    "bt2_current": -31.0,
    "pkt_version": 1,
    "bt1_current": -42.0,
    "driver_timestamp": 3687785371.279612,
    "preferred_timestamp": "internal_timestamp",
    "bt4_current": -100.0,
    "bt3_current": -34.0,
    "pkt_format_id": "JSON_Data",
    "header_timestamp": "2016/06/21 05:55:44.986",
    "internal_timestamp": 3675477344.986
  },
  {
    "quality_flag": "ok",
    "vmain_voltage": 24.93,
    "stream_name": "cg_eng_c_power_sys",
    "bt2_current": 234.0,
    "pkt_version": 1,
    "bt1_current": 249.0,
    "driver_timestamp": 3687785371.3460608,
    "preferred_timestamp": "internal_timestamp",
    "bt4_current": 261.0,
    "bt3_current": 224.0,
    "pkt_format_id": "JSON_Data",
    "header_timestamp": "2016/06/21 06:00:45.732",
    "internal_timestamp": 3675477645.7320004
  },
  {
    "quality_flag": "ok",
    "vmain_voltage": 24.83,
    "stream_name": "cg_eng_c_power_sys",
    "bt2_current": 389.0,
    "pkt_version": 1,
    "bt1_current": 388.0,
    "driver_timestamp": 3687785371.415596,
    "preferred_timestamp": "internal_timestamp",
    "bt4_current": 555.0,
    "bt3_current": 462.0,
    "pkt_format_id": "JSON_Data",
    "header_timestamp": "2016/06/21 06:05:47.148",
    "internal_timestamp": 3675477947.148
  },
  {
    "quality_flag": "ok",
    "vmain_voltage": 24.75,
    "stream_name": "cg_eng_c_power_sys",
    "bt2_current": 858.0,
    "pkt_version": 1,
    "bt1_current": 888.0,
    "driver_timestamp": 3687785371.527113,
    "preferred_timestamp": "internal_timestamp",
    "bt4_current": 984.0,
    "bt3_current": 895.0,
    "pkt_format_id": "JSON_Data",
    "header_timestamp": "2016/06/21 06:10:47.930",
    "internal_timestamp": 3675478247.9300003
  },
  {
    "quality_flag": "ok",
    "vmain_voltage": 24.7,
    "stream_name": "cg_eng_c_power_sys",
    "bt2_current": 1016.0,
    "pkt_version": 1,
    "bt1_current": 1015.0,
    "driver_timestamp": 3687785371.5773687,
    "preferred_timestamp": "internal_timestamp",
    "bt4_current": 1204.0,
    "bt3_current": 1041.0,
    "pkt_format_id": "JSON_Data",
    "header_timestamp": "2016/06/21 06:15:48.988",
    "internal_timestamp": 3675478548.988
  },
  {
    "quality_flag": "ok",
    "vmain_voltage": 24.87,
    "stream_name": "cg_eng_c_power_sys",
    "bt2_current": 294.0,
    "pkt_version": 1,
    "bt1_current": 285.0,
    "driver_timestamp": 3687785371.669546,
    "preferred_timestamp": "internal_timestamp",
    "bt4_current": 340.0,
    "bt3_current": 322.0,
    "pkt_format_id": "JSON_Data",
    "header_timestamp": "2016/06/21 06:20:49.595",
    "internal_timestamp": 3675478849.5950003
  },
  {
    "quality_flag": "ok",
    "vmain_voltage": 24.9,
    "stream_name": "cg_eng_c_power_sys",
    "bt2_current": 462.0,
    "pkt_version": 1,
    "bt1_current": 421.0,
    "driver_timestamp": 3687785371.716587,
    "preferred_timestamp": "internal_timestamp",
    "bt4_current": 482.0,
    "bt3_current": 465.0,
    "pkt_format_id": "JSON_Data",
    "header_timestamp": "2016/06/21 06:25:50.135",
    "internal_timestamp": 3675479150.135
  },
  {
    "quality_flag": "ok",
    "vmain_voltage": 24.9,
    "stream_name": "cg_eng_c_power_sys",
    "bt2_current": 591.0,
    "pkt_version": 1,
    "bt1_current": 595.0,
    "driver_timestamp": 3687785372.232039,
    "preferred_timestamp": "internal_timestamp",
    "bt4_current": 650.0,
    "bt3_current": 611.0,
    "pkt_format_id": "JSON_Data",
    "header_timestamp": "2016/06/21 06:55:44.752",
    "internal_timestamp": 3675480944.752
  },
  {
    "quality_flag": "ok",
    "vmain_voltage": 24.9,
    "stream_name": "cg_eng_c_power_sys",
    "bt2_current": 48.0,
    "pkt_version": 1,
    "bt1_current": 48.0,
    "driver_timestamp": 3687785372.282897,
    "preferred_timestamp": "internal_timestamp",
    "bt4_current": 39.0,
    "bt3_current": 34.0,
    "pkt_format_id": "JSON_Data",
    "header_timestamp": "2016/06/21 07:00:45.626",
    "internal_timestamp": 3675481245.626
  },
  {
    "quality_flag": "ok",
    "vmain_voltage": 24.8,
    "stream_name": "cg_eng_c_power_sys",
    "bt2_current": 669.0,
    "pkt_version": 1,
    "bt1_current": 702.0,
    "driver_timestamp": 3687785372.34717,
    "preferred_timestamp": "internal_timestamp",
    "bt4_current": 802.0,
    "bt3_current": 692.0,
    "pkt_format_id": "JSON_Data",
    "header_timestamp": "2016/06/21 07:05:46.185",
    "internal_timestamp": 3675481546.185
  },
  {
    "quality_flag": "ok",
    "vmain_voltage": 24.9,
    "stream_name": "cg_eng_c_power_sys",
    "bt2_current": -36.0,
    "pkt_version": 1,
    "bt1_current": -13.0,
    "driver_timestamp": 3687785372.404067,
    "preferred_timestamp": "internal_timestamp",
    "bt4_current": -27.0,
    "bt3_current": -40.0,
    "pkt_format_id": "JSON_Data",
    "header_timestamp": "2016/06/21 07:10:46.938",
    "internal_timestamp": 3675481846.9379997
  },
  {
    "quality_flag": "ok",
    "vmain_voltage": 24.8,
    "stream_name": "cg_eng_c_power_sys",
    "bt2_current": 820.0,
    "pkt_version": 1,
    "bt1_current": 797.0,
    "driver_timestamp": 3687785372.463612,
    "preferred_timestamp": "internal_timestamp",
    "bt4_current": 902.0,
    "bt3_current": 820.0,
    "pkt_format_id": "JSON_Data",
    "header_timestamp": "2016/06/21 07:15:47.758",
    "internal_timestamp": 3675482147.758
  },
  {
    "quality_flag": "ok",
    "vmain_voltage": 24.93,
    "stream_name": "cg_eng_c_power_sys",
    "bt2_current": 185.0,
    "pkt_version": 1,
    "bt1_current": 175.0,
    "driver_timestamp": 3687785372.519536,
    "preferred_timestamp": "internal_timestamp",
    "bt4_current": 200.0,
    "bt3_current": 207.0,
    "pkt_format_id": "JSON_Data",
    "header_timestamp": "2016/06/21 07:20:48.427",
    "internal_timestamp": 3675482448.427
  },
  {
    "quality_flag": "ok",
    "vmain_voltage": 24.95,
    "stream_name": "cg_eng_c_power_sys",
    "bt2_current": 49.0,
    "pkt_version": 1,
    "bt1_current": 59.0,
    "driver_timestamp": 3687785372.5725822,
    "preferred_timestamp": "internal_timestamp",
    "bt4_current": 58.0,
    "bt3_current": 48.0,
    "pkt_format_id": "JSON_Data",
    "header_timestamp": "2016/06/21 07:25:48.994",
    "internal_timestamp": 3675482748.994
  },
  {
    "quality_flag": "ok",
    "vmain_voltage": 24.83,
    "stream_name": "cg_eng_c_power_sys",
    "bt2_current": 701.0,
    "pkt_version": 1,
    "bt1_current": 699.0,
    "driver_timestamp": 3687785373.046877,
    "preferred_timestamp": "internal_timestamp",
    "bt4_current": 783.0,
    "bt3_current": 723.0,
    "pkt_format_id": "JSON_Data",
    "header_timestamp": "2016/06/21 07:55:45.957",
    "internal_timestamp": 3675484545.957
  },
  {
    "quality_flag": "ok",
    "vmain_voltage": 24.68,
    "stream_name": "cg_eng_c_power_sys",
    "bt2_current": 1227.0,
    "pkt_version": 1,
    "bt1_current": 1224.0,
    "driver_timestamp": 3687785373.106256,
    "preferred_timestamp": "internal_timestamp",
    "bt4_current": 1362.0,
    "bt3_current": 1267.0,
    "pkt_format_id": "JSON_Data",
    "header_timestamp": "2016/06/21 08:00:46.985",
    "internal_timestamp": 3675484846.9849997
  },
  {
    "quality_flag": "ok",
    "vmain_voltage": 24.62,
    "stream_name": "cg_eng_c_power_sys",
    "bt2_current": 1153.0,
    "pkt_version": 1,
    "bt1_current": 1162.0,
    "driver_timestamp": 3687785373.1426153,
    "preferred_timestamp": "internal_timestamp",
    "bt4_current": 1340.0,
    "bt3_current": 1165.0,
    "pkt_format_id": "JSON_Data",
    "header_timestamp": "2016/06/21 08:05:47.930",
    "internal_timestamp": 3675485147.9300003
  },
  {
    "quality_flag": "ok",
    "vmain_voltage": 24.8,
    "stream_name": "cg_eng_c_power_sys",
    "bt2_current": 381.0,
    "pkt_version": 1,
    "bt1_current": 306.0,
    "driver_timestamp": 3687785373.1998177,
    "preferred_timestamp": "internal_timestamp",
    "bt4_current": 596.0,
    "bt3_current": 393.0,
    "pkt_format_id": "JSON_Data",
    "header_timestamp": "2016/06/21 08:10:48.942",
    "internal_timestamp": 3675485448.942
  },
  {
    "quality_flag": "ok",
    "vmain_voltage": 24.68,
    "stream_name": "cg_eng_c_power_sys",
    "bt2_current": 1024.0,
    "pkt_version": 1,
    "bt1_current": 1042.0,
    "driver_timestamp": 3687785373.282819,
    "preferred_timestamp": "internal_timestamp",
    "bt4_current": 1185.0,
    "bt3_current": 1044.0,
    "pkt_format_id": "JSON_Data",
    "header_timestamp": "2016/06/21 08:15:49.958",
    "internal_timestamp": 3675485749.958
  },
  {
    "quality_flag": "ok",
    "vmain_voltage": 24.73,
    "stream_name": "cg_eng_c_power_sys",
    "bt2_current": 800.0,
    "pkt_version": 1,
    "bt1_current": 810.0,
    "driver_timestamp": 3687785373.330297,
    "preferred_timestamp": "internal_timestamp",
    "bt4_current": 938.0,
    "bt3_current": 817.0,
    "pkt_format_id": "JSON_Data",
    "header_timestamp": "2016/06/21 08:20:50.704",
    "internal_timestamp": 3675486050.704
  },
  {
    "quality_flag": "ok",
    "vmain_voltage": 24.73,
    "stream_name": "cg_eng_c_power_sys",
    "bt2_current": 901.0,
    "pkt_version": 1,
    "bt1_current": 891.0,
    "driver_timestamp": 3687785373.38241,
    "preferred_timestamp": "internal_timestamp",
    "bt4_current": 1055.0,
    "bt3_current": 935.0,
    "pkt_format_id": "JSON_Data",
    "header_timestamp": "2016/06/21 08:25:51.172",
    "internal_timestamp": 3675486351.172
  },
  {
    "quality_flag": "ok",
    "vmain_voltage": 24.83,
    "stream_name": "cg_eng_c_power_sys",
    "bt2_current": 78.0,
    "pkt_version": 1,
    "bt1_current": 110.0,
    "driver_timestamp": 3687785373.79249,
    "preferred_timestamp": "internal_timestamp",
    "bt4_current": 86.0,
    "bt3_current": 84.0,
    "pkt_format_id": "JSON_Data",
    "header_timestamp": "2016/06/21 08:55:42.979",
    "internal_timestamp": 3675488142.979
  },
  {
    "quality_flag": "ok",
    "vmain_voltage": 24.68,
    "stream_name": "cg_eng_c_power_sys",
    "bt2_current": 1141.0,
    "pkt_version": 1,
    "bt1_current": 1080.0,
    "driver_timestamp": 3687785373.86337,
    "preferred_timestamp": "internal_timestamp",
    "bt4_current": 1372.0,
    "bt3_current": 1205.0,
    "pkt_format_id": "JSON_Data",
    "header_timestamp": "2016/06/21 09:00:43.726",
    "internal_timestamp": 3675488443.726
  },
  {
    "quality_flag": "ok",
    "vmain_voltage": 24.75,
    "stream_name": "cg_eng_c_power_sys",
    "bt2_current": 498.0,
    "pkt_version": 1,
    "bt1_current": 503.0,
    "driver_timestamp": 3687785373.915958,
    "preferred_timestamp": "internal_timestamp",
    "bt4_current": 633.0,
    "bt3_current": 548.0,
    "pkt_format_id": "JSON_Data",
    "header_timestamp": "2016/06/21 09:05:45.035",
    "internal_timestamp": 3675488745.035
  },
  {
    "quality_flag": "ok",
    "vmain_voltage": 24.68,
    "stream_name": "cg_eng_c_power_sys",
    "bt2_current": 504.0,
    "pkt_version": 1,
    "bt1_current": 487.0,
    "driver_timestamp": 3687785374.0283813,
    "preferred_timestamp": "internal_timestamp",
    "bt4_current": 615.0,
    "bt3_current": 442.0,
    "pkt_format_id": "JSON_Data",
    "header_timestamp": "2016/06/21 09:10:45.916",
    "internal_timestamp": 3675489045.916
  },
  {
    "quality_flag": "ok",
    "vmain_voltage": 24.62,
    "stream_name": "cg_eng_c_power_sys",
    "bt2_current": 1113.0,
    "pkt_version": 1,
    "bt1_current": 1132.0,
    "driver_timestamp": 3687785374.1232357,
    "preferred_timestamp": "internal_timestamp",
    "bt4_current": 1302.0,
    "bt3_current": 1183.0,
    "pkt_format_id": "JSON_Data",
    "header_timestamp": "2016/06/21 09:15:46.481",
    "internal_timestamp": 3675489346.481
  },
  {
    "quality_flag": "ok",
    "vmain_voltage": 24.75,
    "stream_name": "cg_eng_c_power_sys",
    "bt2_current": 207.0,
    "pkt_version": 1,
    "bt1_current": 240.0,
    "driver_timestamp": 3687785374.1924267,
    "preferred_timestamp": "internal_timestamp",
    "bt4_current": 342.0,
    "bt3_current": 205.0,
    "pkt_format_id": "JSON_Data",
    "header_timestamp": "2016/06/21 09:20:46.930",
    "internal_timestamp": 3675489646.9300003
  },
  {
    "quality_flag": "ok",
    "vmain_voltage": 24.87,
    "stream_name": "cg_eng_c_power_sys",
    "bt2_current": 41.0,
    "pkt_version": 1,
    "bt1_current": 43.0,
    "driver_timestamp": 3687785374.227597,
    "preferred_timestamp": "internal_timestamp",
    "bt4_current": 52.0,
    "bt3_current": 46.0,
    "pkt_format_id": "JSON_Data",
    "header_timestamp": "2016/06/21 09:25:48.042",
    "internal_timestamp": 3675489948.042
  },
  {
    "quality_flag": "ok",
    "vmain_voltage": 24.85,
    "stream_name": "cg_eng_c_power_sys",
    "bt2_current": 754.0,
    "pkt_version": 1,
    "bt1_current": 752.0,
    "driver_timestamp": 3687785374.8632812,
    "preferred_timestamp": "internal_timestamp",
    "bt4_current": 829.0,
    "bt3_current": 789.0,
    "pkt_format_id": "JSON_Data",
    "header_timestamp": "2016/06/21 09:55:42.914",
    "internal_timestamp": 3675491742.914
  },
  {
    "quality_flag": "ok",
    "vmain_voltage": 24.83,
    "stream_name": "cg_eng_c_power_sys",
    "bt2_current": 374.0,
    "pkt_version": 1,
    "bt1_current": 347.0,
    "driver_timestamp": 3687785374.9360437,
    "preferred_timestamp": "internal_timestamp",
    "bt4_current": 458.0,
    "bt3_current": 382.0,
    "pkt_format_id": "JSON_Data",
    "header_timestamp": "2016/06/21 10:00:43.936",
    "internal_timestamp": 3675492043.936
  },
  {
    "quality_flag": "ok",
    "vmain_voltage": 24.98,
    "stream_name": "cg_eng_c_power_sys",
    "bt2_current": -331.0,
    "pkt_version": 1,
    "bt1_current": -360.0,
    "driver_timestamp": 3687785375.018351,
    "preferred_timestamp": "internal_timestamp",
    "bt4_current": -399.0,
    "bt3_current": -335.0,
    "pkt_format_id": "JSON_Data",
    "header_timestamp": "2016/06/21 10:05:44.920",
    "internal_timestamp": 3675492344.92
  },
  {
    "quality_flag": "ok",
    "vmain_voltage": 25.1,
    "stream_name": "cg_eng_c_power_sys",
    "bt2_current": -1284.0,
    "pkt_version": 1,
    "bt1_current": -1208.0,
    "driver_timestamp": 3687785375.077013,
    "preferred_timestamp": "internal_timestamp",
    "bt4_current": -1555.0,
    "bt3_current": -1355.0,
    "pkt_format_id": "JSON_Data",
    "header_timestamp": "2016/06/21 10:10:45.508",
    "internal_timestamp": 3675492645.508
  },
  {
    "quality_flag": "ok",
    "vmain_voltage": 24.95,
    "stream_name": "cg_eng_c_power_sys",
    "bt2_current": 202.0,
    "pkt_version": 1,
    "bt1_current": 189.0,
    "driver_timestamp": 3687785375.139257,
    "preferred_timestamp": "internal_timestamp",
    "bt4_current": 241.0,
    "bt3_current": 246.0,
    "pkt_format_id": "JSON_Data",
    "header_timestamp": "2016/06/21 10:15:46.942",
    "internal_timestamp": 3675492946.942
  },
  {
    "quality_flag": "ok",
    "vmain_voltage": 25.02,
    "stream_name": "cg_eng_c_power_sys",
    "bt2_current": -412.0,
    "pkt_version": 1,
    "bt1_current": -421.0,
    "driver_timestamp": 3687785375.1913,
    "preferred_timestamp": "internal_timestamp",
    "bt4_current": -463.0,
    "bt3_current": -391.0,
    "pkt_format_id": "JSON_Data",
    "header_timestamp": "2016/06/21 10:20:47.992",
    "internal_timestamp": 3675493247.992
  },
  {
    "quality_flag": "ok",
    "vmain_voltage": 25.23,
    "stream_name": "cg_eng_c_power_sys",
    "bt2_current": -943.0,
    "pkt_version": 1,
    "bt1_current": -986.0,
    "driver_timestamp": 3687785375.224567,
    "preferred_timestamp": "internal_timestamp",
    "bt4_current": -1069.0,
    "bt3_current": -937.0,
    "pkt_format_id": "JSON_Data",
    "header_timestamp": "2016/06/21 10:25:48.771",
    "internal_timestamp": 3675493548.771
  },
  {
    "quality_flag": "ok",
    "vmain_voltage": 25.5,
    "stream_name": "cg_eng_c_power_sys",
    "bt2_current": -1553.0,
    "pkt_version": 1,
    "bt1_current": -1546.0,
    "driver_timestamp": 3687785375.654907,
    "preferred_timestamp": "internal_timestamp",
    "bt4_current": -1923.0,
    "bt3_current": -1606.0,
    "pkt_format_id": "JSON_Data",
    "header_timestamp": "2016/06/21 10:55:43.820",
    "internal_timestamp": 3675495343.8199997
  },
  {
    "quality_flag": "ok",
    "vmain_voltage": 24.98,
    "stream_name": "cg_eng_c_power_sys",
    "bt2_current": 1150.0,
    "pkt_version": 1,
    "bt1_current": 1192.0,
    "driver_timestamp": 3687785375.731578,
    "preferred_timestamp": "internal_timestamp",
    "bt4_current": 1104.0,
    "bt3_current": 1053.0,
    "pkt_format_id": "JSON_Data",
    "header_timestamp": "2016/06/21 11:00:44.665",
    "internal_timestamp": 3675495644.665
  },
  {
    "quality_flag": "ok",
    "vmain_voltage": 25.52,
    "stream_name": "cg_eng_c_power_sys",
    "bt2_current": -1992.0,
    "pkt_version": 1,
    "bt1_current": -1992.0,
    "driver_timestamp": 3687785375.7793293,
    "preferred_timestamp": "internal_timestamp",
    "bt4_current": -2298.0,
    "bt3_current": -2069.0,
    "pkt_format_id": "JSON_Data",
    "header_timestamp": "2016/06/21 11:05:46.097",
    "internal_timestamp": 3675495946.097
  },
  {
    "quality_flag": "ok",
    "vmain_voltage": 25.3,
    "stream_name": "cg_eng_c_power_sys",
    "bt2_current": 1112.0,
    "pkt_version": 1,
    "bt1_current": 1085.0,
    "driver_timestamp": 3687785375.808573,
    "preferred_timestamp": "internal_timestamp",
    "bt4_current": 1026.0,
    "bt3_current": 1154.0,
    "pkt_format_id": "JSON_Data",
    "header_timestamp": "2016/06/21 11:10:46.966",
    "internal_timestamp": 3675496246.966
  },
  {
    "quality_flag": "ok",
    "vmain_voltage": 25.58,
    "stream_name": "cg_eng_c_power_sys",
    "bt2_current": -716.0,
    "pkt_version": 1,
    "bt1_current": -726.0,
    "driver_timestamp": 3687785375.852406,
    "preferred_timestamp": "internal_timestamp",
    "bt4_current": -1034.0,
    "bt3_current": -760.0,
    "pkt_format_id": "JSON_Data",
    "header_timestamp": "2016/06/21 11:15:47.966",
    "internal_timestamp": 3675496547.966
  },
  {
    "quality_flag": "ok",
    "vmain_voltage": 25.3,
    "stream_name": "cg_eng_c_power_sys",
    "bt2_current": -249.0,
    "pkt_version": 1,
    "bt1_current": -259.0,
    "driver_timestamp": 3687785375.904524,
    "preferred_timestamp": "internal_timestamp",
    "bt4_current": -347.0,
    "bt3_current": -274.0,
    "pkt_format_id": "JSON_Data",
    "header_timestamp": "2016/06/21 11:20:48.601",
    "internal_timestamp": 3675496848.601
  },
  {
    "quality_flag": "ok",
    "vmain_voltage": 25.12,
    "stream_name": "cg_eng_c_power_sys",
    "bt2_current": 453.0,
    "pkt_version": 1,
    "bt1_current": 419.0,
    "driver_timestamp": 3687785375.961686,
    "preferred_timestamp": "internal_timestamp",
    "bt4_current": 448.0,
    "bt3_current": 454.0,
    "pkt_format_id": "JSON_Data",
    "header_timestamp": "2016/06/21 11:25:49.329",
    "internal_timestamp": 3675497149.329
  },
  {
    "quality_flag": "ok",
    "vmain_voltage": 24.68,
    "stream_name": "cg_eng_c_power_sys",
    "bt2_current": 1063.0,
    "pkt_version": 1,
    "bt1_current": 1052.0,
    "driver_timestamp": 3687785376.514151,
    "preferred_timestamp": "internal_timestamp",
    "bt4_current": 1296.0,
    "bt3_current": 1097.0,
    "pkt_format_id": "JSON_Data",
    "header_timestamp": "2016/06/21 11:55:44.667",
    "internal_timestamp": 3675498944.667
  },
  {
    "quality_flag": "ok",
    "vmain_voltage": 24.52,
    "stream_name": "cg_eng_c_power_sys",
    "bt2_current": 1586.0,
    "pkt_version": 1,
    "bt1_current": 1591.0,
    "driver_timestamp": 3687785376.567994,
    "preferred_timestamp": "internal_timestamp",
    "bt4_current": 1875.0,
    "bt3_current": 1655.0,
    "pkt_format_id": "JSON_Data",
    "header_timestamp": "2016/06/21 12:00:45.583",
    "internal_timestamp": 3675499245.583
  },
  {
    "quality_flag": "ok",
    "vmain_voltage": 24.55,
    "stream_name": "cg_eng_c_power_sys",
    "bt2_current": 1298.0,
    "pkt_version": 1,
    "bt1_current": 1305.0,
    "driver_timestamp": 3687785376.6107283,
    "preferred_timestamp": "internal_timestamp",
    "bt4_current": 1595.0,
    "bt3_current": 1352.0,
    "pkt_format_id": "JSON_Data",
    "header_timestamp": "2016/06/21 12:05:47.004",
    "internal_timestamp": 3675499547.0039997
  },
  {
    "quality_flag": "ok",
    "vmain_voltage": 24.48,
    "stream_name": "cg_eng_c_power_sys",
    "bt2_current": 1521.0,
    "pkt_version": 1,
    "bt1_current": 1410.0,
    "driver_timestamp": 3687785376.9782267,
    "preferred_timestamp": "internal_timestamp",
    "bt4_current": 1762.0,
    "bt3_current": 1459.0,
    "pkt_format_id": "JSON_Data",
    "header_timestamp": "2016/06/21 12:10:47.957",
    "internal_timestamp": 3675499847.957
  }
]