Row Type,Variable Name,Attribute Name,Data Type,Value
attribute,NC_GLOBAL,_NCProperties,String,version=1|netcdflibversion=4.4.1.1|hdf5libversion=1.8.17
attribute,NC_GLOBAL,acknowledgement,String,National Science Foundation
attribute,NC_GLOBAL,cdm_data_type,String,TimeSeries
attribute,NC_GLOBAL,cdm_timeseries_variables,String,"latitude, longitude, feature_type_instance, platform"
attribute,NC_GLOBAL,comment,String,Mooring ID: CE04OSSM-00003
attribute,NC_GLOBAL,Conventions,String,"CF-1.6, COARDS, ACDD-1.3"
attribute,NC_GLOBAL,creator_email,String,cwingard@coas.oregonstate.edu
attribute,NC_GLOBAL,creator_name,String,"Oregon State University, College of Earth, Ocean, and Atmospheric Sciences"
attribute,NC_GLOBAL,creator_url,String,http://oceanobservatories.org
attribute,NC_GLOBAL,date_created,String,2017-03-03T23:17:00Z
attribute,NC_GLOBAL,date_issued,String,2017-03-03T23:17:00Z
attribute,NC_GLOBAL,date_metadata_modified,String,2017-03-03T23:17:00Z
attribute,NC_GLOBAL,date_modified,String,2017-03-03T23:17:00Z
attribute,NC_GLOBAL,defaultGraphQuery,String,"time,air_temperature&time>=now-7day&.draw=lines"
attribute,NC_GLOBAL,Easternmost_Easting,double,-124.95499
attribute,NC_GLOBAL,featureType,String,TimeSeries
attribute,NC_GLOBAL,geospatial_bounds,String,POINT(-124.95499 44.38357)
attribute,NC_GLOBAL,geospatial_bounds_crs,String,4326
attribute,NC_GLOBAL,geospatial_lat_max,double,44.38357
attribute,NC_GLOBAL,geospatial_lat_min,double,44.38357
attribute,NC_GLOBAL,geospatial_lat_resolution,long,0
attribute,NC_GLOBAL,geospatial_lat_units,String,degrees_north
attribute,NC_GLOBAL,geospatial_lon_max,double,-124.95499
attribute,NC_GLOBAL,geospatial_lon_min,double,-124.95499
attribute,NC_GLOBAL,geospatial_lon_resolution,long,0
attribute,NC_GLOBAL,geospatial_lon_units,String,degrees_east
attribute,NC_GLOBAL,geospatial_vertical_positive,String,down
attribute,NC_GLOBAL,geospatial_vertical_resolution,String,0
attribute,NC_GLOBAL,geospatial_vertical_units,String,meters
attribute,NC_GLOBAL,history,String,2017-03-03T23:17:00Z - pyaxiom - File created using pyaxiom
attribute,NC_GLOBAL,infoUrl,String,http://oceanobservatories.org/
attribute,NC_GLOBAL,institution,String,"Coastal and Global Scales Nodes, (CGSN)"
attribute,NC_GLOBAL,keywords,String,"air_pressure, air_temperature"
attribute,NC_GLOBAL,keywords_vocabulary,String,GCMD Science Keywords
attribute,NC_GLOBAL,ncei_template_version,String,NCEI_NetCDF_TimeSeries_Orthogonal_Template_v2.0
attribute,NC_GLOBAL,Northernmost_Northing,double,44.38357
attribute,NC_GLOBAL,project,String,Ocean Observatories Initiative
attribute,NC_GLOBAL,references,String,http://oceanobservatories.org
attribute,NC_GLOBAL,sourceUrl,String,(local files)
attribute,NC_GLOBAL,Southernmost_Northing,double,44.38357
attribute,NC_GLOBAL,subsetVariables,String,"latitude, longitude, feature_type_instance, platform, deploy_id"
attribute,NC_GLOBAL,summary,String,Bulk Meteorological (METBK) TimeSeries
attribute,NC_GLOBAL,time_coverage_duration,String,PT81430S
attribute,NC_GLOBAL,time_coverage_end,String,2016-10-01T23:59:50Z
attribute,NC_GLOBAL,time_coverage_resolution,String,PT65S
attribute,NC_GLOBAL,time_coverage_start,String,2016-10-01T01:22:40Z
attribute,NC_GLOBAL,title,String,CE04OSSM METBK
attribute,NC_GLOBAL,Westernmost_Easting,double,-124.95499
variable,latitude,,double,
attribute,latitude,_CoordinateAxisType,String,Lat
attribute,latitude,actual_range,double,"44.38357, 44.38357"
attribute,latitude,axis,String,Y
attribute,latitude,colorBarMaximum,double,90.0
attribute,latitude,colorBarMinimum,double,-90.0
attribute,latitude,ioos_category,String,Location
attribute,latitude,long_name,String,sensor latitude
attribute,latitude,standard_name,String,latitude
attribute,latitude,units,String,degrees_north
attribute,latitude,valid_max,double,44.38357
attribute,latitude,valid_min,double,44.38357
variable,longitude,,double,
attribute,longitude,_CoordinateAxisType,String,Lon
attribute,longitude,actual_range,double,"-124.95499, -124.95499"
attribute,longitude,axis,String,X
attribute,longitude,colorBarMaximum,double,180.0
attribute,longitude,colorBarMinimum,double,-180.0
attribute,longitude,ioos_category,String,Location
attribute,longitude,long_name,String,sensor longitude
attribute,longitude,standard_name,String,longitude
attribute,longitude,units,String,degrees_east
attribute,longitude,valid_max,double,-124.95499
attribute,longitude,valid_min,double,-124.95499
variable,crs,,int,
attribute,crs,actual_range,int,"-2147483647, -2147483647"
attribute,crs,epsg_code,String,EPSG:4326
attribute,crs,grid_mapping_name,String,latitude_longitude
attribute,crs,inverse_flattening,double,298.257223563
attribute,crs,ioos_category,String,Unknown
attribute,crs,long_name,String,http://www.opengis.net/def/crs/EPSG/0/4326
attribute,crs,semi_major_axis,double,6378137.0
variable,feature_type_instance,,int,
attribute,feature_type_instance,cf_role,String,timeseries_id
attribute,feature_type_instance,ioos_category,String,Identifier
attribute,feature_type_instance,long_name,String,Identifier for each feature type instance
variable,platform,,int,
attribute,platform,actual_range,int,"-2147483647, -2147483647"
attribute,platform,definition,String,http://mmisw.org/ont/ioos/definition/stationID
attribute,platform,ioos_category,String,Heat Flux
attribute,platform,ioos_code,String,ce04ossm
attribute,platform,long_name,String,"Measures surface meteorology and provides the data required to compute air-sea fluxes of heat, freshwater, and momentum."
attribute,platform,short_name,String,Bulk Meteorological (METBK) Measurements
variable,time,,double,
attribute,time,_CoordinateAxisType,String,Time
attribute,time,actual_range,double,"1.4752849608590002E9, 1.4753663906230001E9"
attribute,time,axis,String,T
attribute,time,calendar,String,gregorian
attribute,time,ioos_category,String,Time
attribute,time,long_name,String,time of measurement
attribute,time,standard_name,String,time
attribute,time,time_origin,String,01-JAN-1970 00:00:00
attribute,time,units,String,seconds since 1970-01-01T00:00:00Z
variable,air_temperature,,double,
attribute,air_temperature,_ChunkSizes,int,1000
attribute,air_temperature,_FillValue,double,-9999.0
attribute,air_temperature,actual_range,double,"12.22, 14.484"
attribute,air_temperature,ancillary_variables,String,platform
attribute,air_temperature,colorBarMaximum,double,40.0
attribute,air_temperature,colorBarMinimum,double,-10.0
attribute,air_temperature,coverage_content_type,String,physicalMeasurement
attribute,air_temperature,grid_mapping,String,crs
attribute,air_temperature,ioos_category,String,Temperature
attribute,air_temperature,long_name,String,Air Temperature
attribute,air_temperature,missing_value,double,-9.99999999E8
attribute,air_temperature,platform,String,platform
attribute,air_temperature,sensor_mount,String,mounted on mooring tower
attribute,air_temperature,standard_name,String,air_temperature
attribute,air_temperature,units,String,degree_Celcius
attribute,air_temperature,valid_max,double,30.0
attribute,air_temperature,valid_min,double,-5.0
variable,barometric_pressure,,double,
attribute,barometric_pressure,_ChunkSizes,int,1000
attribute,barometric_pressure,_FillValue,double,-9999.0
attribute,barometric_pressure,actual_range,double,"1012.6, 1014.67"
attribute,barometric_pressure,ancillary_variables,String,platform
attribute,barometric_pressure,colorBarMaximum,double,2500.0
attribute,barometric_pressure,colorBarMinimum,double,0.0
attribute,barometric_pressure,coverage_content_type,String,physicalMeasurement
attribute,barometric_pressure,grid_mapping,String,crs
attribute,barometric_pressure,ioos_category,String,Pressure
attribute,barometric_pressure,long_name,String,Barometric Pressure
attribute,barometric_pressure,missing_value,double,-9.99999999E8
attribute,barometric_pressure,platform,String,platform
attribute,barometric_pressure,sensor_mount,String,mounted on mooring tower
attribute,barometric_pressure,standard_name,String,barometric_pressure
attribute,barometric_pressure,units,String,mbar
attribute,barometric_pressure,valid_max,double,2000.0
attribute,barometric_pressure,valid_min,double,0.0
variable,eastward_wind_velocity,,double,
attribute,eastward_wind_velocity,_ChunkSizes,int,1000
attribute,eastward_wind_velocity,_FillValue,double,-9999.0
attribute,eastward_wind_velocity,actual_range,double,"-4.32, 8.24"
attribute,eastward_wind_velocity,ancillary_variables,String,platform
attribute,eastward_wind_velocity,colorBarMaximum,double,150.0
attribute,eastward_wind_velocity,colorBarMinimum,double,-150.0
attribute,eastward_wind_velocity,coverage_content_type,String,physicalMeasurement
attribute,eastward_wind_velocity,grid_mapping,String,crs
attribute,eastward_wind_velocity,ioos_category,String,Wind
attribute,eastward_wind_velocity,long_name,String,Eastward Wind Velocity
attribute,eastward_wind_velocity,missing_value,double,-9.99999999E8
attribute,eastward_wind_velocity,platform,String,platform
attribute,eastward_wind_velocity,sensor_mount,String,mounted on mooring tower
attribute,eastward_wind_velocity,standard_name,String,eastward_wind_velocity
attribute,eastward_wind_velocity,units,String,m s-1
attribute,eastward_wind_velocity,valid_max,double,100.0
attribute,eastward_wind_velocity,valid_min,double,-100.0
variable,longwave_irradiance,,double,
attribute,longwave_irradiance,_ChunkSizes,int,1000
attribute,longwave_irradiance,_FillValue,double,-9999.0
attribute,longwave_irradiance,actual_range,double,"301.9, 381.0"
attribute,longwave_irradiance,ancillary_variables,String,platform
attribute,longwave_irradiance,colorBarMaximum,double,1200.0
attribute,longwave_irradiance,colorBarMinimum,double,0.0
attribute,longwave_irradiance,coverage_content_type,String,physicalMeasurement
attribute,longwave_irradiance,grid_mapping,String,crs
attribute,longwave_irradiance,ioos_category,String,Heat Flux
attribute,longwave_irradiance,long_name,String,Longwave Irradiance
attribute,longwave_irradiance,missing_value,double,-9.99999999E8
attribute,longwave_irradiance,platform,String,platform
attribute,longwave_irradiance,sensor_mount,String,mounted on mooring tower
attribute,longwave_irradiance,standard_name,String,longwave_irradiance
attribute,longwave_irradiance,units,String,W m-2
attribute,longwave_irradiance,valid_max,double,1000.0
attribute,longwave_irradiance,valid_min,double,0.0
variable,northward_wind_velocity,,double,
attribute,northward_wind_velocity,_ChunkSizes,int,1000
attribute,northward_wind_velocity,_FillValue,double,-9999.0
attribute,northward_wind_velocity,actual_range,double,"3.37, 11.9"
attribute,northward_wind_velocity,ancillary_variables,String,platform
attribute,northward_wind_velocity,colorBarMaximum,double,150.0
attribute,northward_wind_velocity,colorBarMinimum,double,-150.0
attribute,northward_wind_velocity,coverage_content_type,String,physicalMeasurement
attribute,northward_wind_velocity,grid_mapping,String,crs
attribute,northward_wind_velocity,ioos_category,String,Wind
attribute,northward_wind_velocity,long_name,String,Northward Wind Velocity
attribute,northward_wind_velocity,missing_value,double,-9.99999999E8
attribute,northward_wind_velocity,platform,String,platform
attribute,northward_wind_velocity,sensor_mount,String,mounted on mooring tower
attribute,northward_wind_velocity,standard_name,String,northward_wind_velocity
attribute,northward_wind_velocity,units,String,m s-1
attribute,northward_wind_velocity,valid_max,double,100.0
attribute,northward_wind_velocity,valid_min,double,-100.0
variable,precipitation_level,,double,
attribute,precipitation_level,_ChunkSizes,int,1000
attribute,precipitation_level,_FillValue,double,-9999.0
attribute,precipitation_level,actual_range,double,"8.65, 19.2"
attribute,precipitation_level,ancillary_variables,String,platform
attribute,precipitation_level,colorBarMaximum,double,1.0
attribute,precipitation_level,colorBarMinimum,double,0.0
attribute,precipitation_level,coverage_content_type,String,physicalMeasurement
attribute,precipitation_level,grid_mapping,String,crs
attribute,precipitation_level,ioos_category,String,Meteorology
attribute,precipitation_level,long_name,String,Precipitation Level
attribute,precipitation_level,missing_value,double,-9.99999999E8
attribute,precipitation_level,platform,String,platform
attribute,precipitation_level,sensor_mount,String,mounted on mooring tower
attribute,precipitation_level,standard_name,String,precipitation_level
attribute,precipitation_level,units,String,mm
attribute,precipitation_level,valid_max,double,100.0
attribute,precipitation_level,valid_min,double,0.0
variable,relative_humidity,,double,
attribute,relative_humidity,_ChunkSizes,int,1000
attribute,relative_humidity,_FillValue,double,-9999.0
attribute,relative_humidity,actual_range,double,"75.206, 92.848"
attribute,relative_humidity,ancillary_variables,String,platform
attribute,relative_humidity,colorBarMaximum,double,100.0
attribute,relative_humidity,colorBarMinimum,double,20.0
attribute,relative_humidity,coverage_content_type,String,physicalMeasurement
attribute,relative_humidity,grid_mapping,String,crs
attribute,relative_humidity,ioos_category,String,Meteorology
attribute,relative_humidity,long_name,String,Relative Humidity
attribute,relative_humidity,missing_value,double,-9.99999999E8
attribute,relative_humidity,platform,String,platform
attribute,relative_humidity,sensor_mount,String,mounted on mooring tower
attribute,relative_humidity,standard_name,String,relative_humidity
attribute,relative_humidity,units,String,percent
attribute,relative_humidity,valid_max,double,100.0
attribute,relative_humidity,valid_min,double,0.0
variable,sea_surface_conductivity,,double,
attribute,sea_surface_conductivity,_ChunkSizes,int,1000
attribute,sea_surface_conductivity,_FillValue,double,-9999.0
attribute,sea_surface_conductivity,actual_range,double,"3.8379, 3.9163"
attribute,sea_surface_conductivity,ancillary_variables,String,platform
attribute,sea_surface_conductivity,colorBarMaximum,double,6.0
attribute,sea_surface_conductivity,colorBarMinimum,double,0.0
attribute,sea_surface_conductivity,coverage_content_type,String,physicalMeasurement
attribute,sea_surface_conductivity,grid_mapping,String,crs
attribute,sea_surface_conductivity,ioos_category,String,Salinity
attribute,sea_surface_conductivity,long_name,String,Sea Surface Conductivity
attribute,sea_surface_conductivity,missing_value,double,-9.99999999E8
attribute,sea_surface_conductivity,platform,String,platform
attribute,sea_surface_conductivity,sensor_mount,String,mounted on mooring subsurface bridle
attribute,sea_surface_conductivity,standard_name,String,sea_surface_conductivity
attribute,sea_surface_conductivity,units,String,S m-1
attribute,sea_surface_conductivity,valid_max,double,5.0
attribute,sea_surface_conductivity,valid_min,double,0.0
variable,sea_surface_temperature,,double,
attribute,sea_surface_temperature,_ChunkSizes,int,1000
attribute,sea_surface_temperature,_FillValue,double,-9999.0
attribute,sea_surface_temperature,actual_range,double,"13.402, 14.361"
attribute,sea_surface_temperature,ancillary_variables,String,platform
attribute,sea_surface_temperature,colorBarMaximum,double,32.0
attribute,sea_surface_temperature,colorBarMinimum,double,0.0
attribute,sea_surface_temperature,coverage_content_type,String,physicalMeasurement
attribute,sea_surface_temperature,grid_mapping,String,crs
attribute,sea_surface_temperature,ioos_category,String,Temperature
attribute,sea_surface_temperature,long_name,String,Sea Surface Temperature
attribute,sea_surface_temperature,missing_value,double,-9.99999999E8
attribute,sea_surface_temperature,platform,String,platform
attribute,sea_surface_temperature,sensor_mount,String,mounted on mooring subsurface bridle
attribute,sea_surface_temperature,standard_name,String,sea_surface_temperature
attribute,sea_surface_temperature,units,String,degree_Celcius
attribute,sea_surface_temperature,valid_max,double,30.0
attribute,sea_surface_temperature,valid_min,double,0.0
variable,shortwave_irradiance,,double,
attribute,shortwave_irradiance,_ChunkSizes,int,1000
attribute,shortwave_irradiance,_FillValue,double,-9999.0
attribute,shortwave_irradiance,actual_range,double,"-0.3, 920.5"
attribute,shortwave_irradiance,ancillary_variables,String,platform
attribute,shortwave_irradiance,colorBarMaximum,double,1200.0
attribute,shortwave_irradiance,colorBarMinimum,double,0.0
attribute,shortwave_irradiance,coverage_content_type,String,physicalMeasurement
attribute,shortwave_irradiance,grid_mapping,String,crs
attribute,shortwave_irradiance,ioos_category,String,Heat Flux
attribute,shortwave_irradiance,long_name,String,Shortwave Irradiance
attribute,shortwave_irradiance,missing_value,double,-9.99999999E8
attribute,shortwave_irradiance,platform,String,platform
attribute,shortwave_irradiance,sensor_mount,String,mounted on mooring tower
attribute,shortwave_irradiance,standard_name,String,shortwave_irradiance
attribute,shortwave_irradiance,units,String,W m-2
attribute,shortwave_irradiance,valid_max,double,1000.0
attribute,shortwave_irradiance,valid_min,double,0.0
variable,deploy_id,,String,
attribute,deploy_id,ioos_category,String,Identifier
attribute,deploy_id,long_name,String,Deployment ID
attribute,deploy_id,standard_name,String,deployment_id
attribute,deploy_id,units,String,1
variable,psu,,double,
attribute,psu,_ChunkSizes,int,1000
attribute,psu,_FillValue,double,-9999.0
attribute,psu,actual_range,double,"32.070903804383306, 32.212160553905456"
attribute,psu,ancillary_variables,String,platform
attribute,psu,colorBarMaximum,double,37.0
attribute,psu,colorBarMinimum,double,32.0
attribute,psu,coverage_content_type,String,physicalMeasurement
attribute,psu,grid_mapping,String,crs
attribute,psu,ioos_category,String,Salinity
attribute,psu,long_name,String,Practical Salinity
attribute,psu,missing_value,double,-9.99999999E8
attribute,psu,platform,String,platform
attribute,psu,sensor_mount,String,mounted on mooring subsurface bridle
attribute,psu,standard_name,String,sea_water_practical_salinity
attribute,psu,units,String,PSU
attribute,psu,valid_max,double,40.0
attribute,psu,valid_min,double,0.0
variable,rho,,double,
attribute,rho,_ChunkSizes,int,1000
attribute,rho,_FillValue,double,-9999.0
attribute,rho,actual_range,double,"1023.8957003920423, 1024.1597827001065"
attribute,rho,ancillary_variables,String,platform
attribute,rho,colorBarMaximum,double,28.0
attribute,rho,colorBarMinimum,double,20.0
attribute,rho,coverage_content_type,String,physicalMeasurement
attribute,rho,grid_mapping,String,crs
attribute,rho,ioos_category,String,Salinity
attribute,rho,long_name,String,In-Situ Seawater Density
attribute,rho,missing_value,double,-9.99999999E8
attribute,rho,platform,String,platform
attribute,rho,sensor_mount,String,mounted on mooring subsurface bridle
attribute,rho,standard_name,String,sea_water_density
attribute,rho,units,String,kg m-3
attribute,rho,valid_max,double,30.0
attribute,rho,valid_min,double,0.0
